…
### dplyr::filter
One of the most basic function in dplyr is filter(). It will basically subset dataset for your interest. A confusing part which a first-time user face is how to write conditional statement, i.e. "and", "or", "not". You have to be careful for writing this statement not as same as english language grammar. The code below is filtering data of flights departed in either November or December. Although you might be tempted to write as: nov_dev <- filter(flights, month == 11 | 12, it won't work. You need to write either: month ==11| month==12, or month %in% c(11,12), like code below.

```r
library(nycflights13)
nov_dec <- filter(flights, month %in% c(11, 12))
```
What you should remember when you use filter is handling of missing value. Filter by default exculdes NA and FALSE value based on the conditional statement you write. Therefore, if you want to keep NA (=missing), you should explicitly write it out.

```r
filter(flights, is.na(month) | month %in% c(11,12))
```

```
## # A tibble: 55,403 x 19
##     year month   day dep_time sched_dep_time dep_delay arr_time
##    <int> <int> <int>    <int>          <int>     <dbl>    <int>
##  1  2013    11     1        5           2359         6      352
##  2  2013    11     1       35           2250       105      123
##  3  2013    11     1      455            500        -5      641
##  4  2013    11     1      539            545        -6      856
##  5  2013    11     1      542            545        -3      831
##  6  2013    11     1      549            600       -11      912
##  7  2013    11     1      550            600       -10      705
##  8  2013    11     1      554            600        -6      659
##  9  2013    11     1      554            600        -6      826
## 10  2013    11     1      554            600        -6      749
## # … with 55,393 more rows, and 12 more variables: sched_arr_time <int>,
## #   arr_delay <dbl>, carrier <chr>, flight <int>, tailnum <chr>,
## #   origin <chr>, dest <chr>, air_time <dbl>, distance <dbl>, hour <dbl>,
## #   minute <dbl>, time_hour <dttm>
```

### dplyr::select
Select is used to keep certain columns of your interest. You can also move a certain columns to the start of the dataframe. 


```r
select(flights, year, month, day)
```

```
## # A tibble: 336,776 x 3
##     year month   day
##    <int> <int> <int>
##  1  2013     1     1
##  2  2013     1     1
##  3  2013     1     1
##  4  2013     1     1
##  5  2013     1     1
##  6  2013     1     1
##  7  2013     1     1
##  8  2013     1     1
##  9  2013     1     1
## 10  2013     1     1
## # … with 336,766 more rows
```

```r
select(flights, year:day)
```

```
## # A tibble: 336,776 x 3
##     year month   day
##    <int> <int> <int>
##  1  2013     1     1
##  2  2013     1     1
##  3  2013     1     1
##  4  2013     1     1
##  5  2013     1     1
##  6  2013     1     1
##  7  2013     1     1
##  8  2013     1     1
##  9  2013     1     1
## 10  2013     1     1
## # … with 336,766 more rows
```

```r
select(flights, -(year:day))
```

```
## # A tibble: 336,776 x 16
##    dep_time sched_dep_time dep_delay arr_time sched_arr_time arr_delay
##       <int>          <int>     <dbl>    <int>          <int>     <dbl>
##  1      517            515         2      830            819        11
##  2      533            529         4      850            830        20
##  3      542            540         2      923            850        33
##  4      544            545        -1     1004           1022       -18
##  5      554            600        -6      812            837       -25
##  6      554            558        -4      740            728        12
##  7      555            600        -5      913            854        19
##  8      557            600        -3      709            723       -14
##  9      557            600        -3      838            846        -8
## 10      558            600        -2      753            745         8
## # … with 336,766 more rows, and 10 more variables: carrier <chr>,
## #   flight <int>, tailnum <chr>, origin <chr>, dest <chr>, air_time <dbl>,
## #   distance <dbl>, hour <dbl>, minute <dbl>, time_hour <dttm>
```
…
* contains("ijk"): matches names that contain “ijk”.

* matches("(.)\\1"): selects variables that match a regular expression.  

* num_range("x", 1:3): matches x1, x2 and x3.  

When you want to rename variable, you can use rename(). When you want to change the order of the columns (variables), you can use everything() within select(). The code below move two columns "time_hour" and "air_time" to the start of the data.

```r
rename(flights, tail_num = tailnum)
```

```
## # A tibble: 336,776 x 19
##     year month   day dep_time sched_dep_time dep_delay arr_time
##    <int> <int> <int>    <int>          <int>     <dbl>    <int>
##  1  2013     1     1      517            515         2      830
##  2  2013     1     1      533            529         4      850
##  3  2013     1     1      542            540         2      923
##  4  2013     1     1      544            545        -1     1004
##  5  2013     1     1      554            600        -6      812
##  6  2013     1     1      554            558        -4      740
##  7  2013     1     1      555            600        -5      913
##  8  2013     1     1      557            600        -3      709
##  9  2013     1     1      557            600        -3      838
## 10  2013     1     1      558            600        -2      753
## # … with 336,766 more rows, and 12 more variables: sched_arr_time <int>,
## #   arr_delay <dbl>, carrier <chr>, flight <int>, tail_num <chr>,
## #   origin <chr>, dest <chr>, air_time <dbl>, distance <dbl>, hour <dbl>,
## #   minute <dbl>, time_hour <dttm>
```

```r
select(flights, time_hour, air_time, everything())
```

```
## # A tibble: 336,776 x 19
##    time_hour           air_time  year month   day dep_time sched_dep_time
##    <dttm>                 <dbl> <int> <int> <int>    <int>          <int>
##  1 2013-01-01 05:00:00      227  2013     1     1      517            515
##  2 2013-01-01 05:00:00      227  2013     1     1      533            529
##  3 2013-01-01 05:00:00      160  2013     1     1      542            540
##  4 2013-01-01 05:00:00      183  2013     1     1      544            545
##  5 2013-01-01 06:00:00      116  2013     1     1      554            600
##  6 2013-01-01 05:00:00      150  2013     1     1      554            558
##  7 2013-01-01 06:00:00      158  2013     1     1      555            600
##  8 2013-01-01 06:00:00       53  2013     1     1      557            600
##  9 2013-01-01 06:00:00      140  2013     1     1      557            600
## 10 2013-01-01 06:00:00      138  2013     1     1      558            600
## # … with 336,766 more rows, and 12 more variables: dep_delay <dbl>,
## #   arr_time <int>, sched_arr_time <int>, arr_delay <dbl>, carrier <chr>,
## #   flight <int>, tailnum <chr>, origin <chr>, dest <chr>, distance <dbl>,
## #   hour <dbl>, minute <dbl>
```
…
```
## [1] "year"      "month"     "day"       "dep_delay" "arr_delay" "distance" 
## [7] "air_time"
```

```r
mutate(flights_sml,
  gain = dep_delay - arr_delay,
  speed = distance / air_time * 60
)
```

```
## # A tibble: 336,776 x 9
##     year month   day dep_delay arr_delay distance air_time  gain speed
##    <int> <int> <int>     <dbl>     <dbl>    <dbl>    <dbl> <dbl> <dbl>
##  1  2013     1     1         2        11     1400      227    -9  370.
##  2  2013     1     1         4        20     1416      227   -16  374.
##  3  2013     1     1         2        33     1089      160   -31  408.
##  4  2013     1     1        -1       -18     1576      183    17  517.
##  5  2013     1     1        -6       -25      762      116    19  394.
##  6  2013     1     1        -4        12      719      150   -16  288.
##  7  2013     1     1        -5        19     1065      158   -24  404.
##  8  2013     1     1        -3       -14      229       53    11  259.
##  9  2013     1     1        -3        -8      944      140     5  405.
## 10  2013     1     1        -2         8      733      138   -10  319.
## # … with 336,766 more rows
```

```r
# 2 
mutate(flights_sml,
  gain = dep_delay - arr_delay,
  hours = air_time / 60,
  gain_per_hour = gain / hours
)
```

```
## # A tibble: 336,776 x 10
##     year month   day dep_delay arr_delay distance air_time  gain hours
##    <int> <int> <int>     <dbl>     <dbl>    <dbl>    <dbl> <dbl> <dbl>
##  1  2013     1     1         2        11     1400      227    -9 3.78 
##  2  2013     1     1         4        20     1416      227   -16 3.78 
##  3  2013     1     1         2        33     1089      160   -31 2.67 
##  4  2013     1     1        -1       -18     1576      183    17 3.05 
##  5  2013     1     1        -6       -25      762      116    19 1.93 
##  6  2013     1     1        -4        12      719      150   -16 2.5  
##  7  2013     1     1        -5        19     1065      158   -24 2.63 
##  8  2013     1     1        -3       -14      229       53    11 0.883
##  9  2013     1     1        -3        -8      944      140     5 2.33 
## 10  2013     1     1        -2         8      733      138   -10 2.3  
## # … with 336,766 more rows, and 1 more variable: gain_per_hour <dbl>
```

```r
# 3
transmute(flights,
  gain = dep_delay - arr_delay,
  hours = air_time / 60,
  gain_per_hour = gain / hours
)
```

```
## # A tibble: 336,776 x 3
##     gain hours gain_per_hour
##    <dbl> <dbl>         <dbl>
##  1    -9 3.78          -2.38
##  2   -16 3.78          -4.23
##  3   -31 2.67         -11.6 
##  4    17 3.05           5.57
##  5    19 1.93           9.83
##  6   -16 2.5           -6.4 
##  7   -24 2.63          -9.11
##  8    11 0.883         12.5 
##  9     5 2.33           2.14
## 10   -10 2.3           -4.35
## # … with 336,766 more rows
```
…
```
## # A tibble: 1 x 1
##   delay
##   <dbl>
## 1  12.6
```

```r
# 2
by_day <- group_by(flights, year, month, day)
summarise(by_day, delay = mean(dep_delay, na.rm = TRUE))
```

```
## # A tibble: 365 x 4
## # Groups:   year, month [12]
##     year month   day delay
##    <int> <int> <int> <dbl>
##  1  2013     1     1 11.5 
##  2  2013     1     2 13.9 
##  3  2013     1     3 11.0 
##  4  2013     1     4  8.95
##  5  2013     1     5  5.73
##  6  2013     1     6  7.15
##  7  2013     1     7  5.42
##  8  2013     1     8  2.55
##  9  2013     1     9  2.28
## 10  2013     1    10  2.84
## # … with 355 more rows
```
…
By using conditonal sentence within summarise argument, it will enable to count the number of observation by group which meet the conditions. This will be done by sum() to simply count the number of observations which meet the condition, and mean() can produce the propotion against the total observation within the group that meet the condition.


```r
# 1
flights %>%
	#filter(!is.na(dep_time)) %>%
        group_by(year, month, day) %>% 
        summarise(n_early = sum(dep_time < 500, na.rm=TRUE))
```

```
## # A tibble: 365 x 4
## # Groups:   year, month [12]
##     year month   day n_early
##    <int> <int> <int>   <int>
##  1  2013     1     1       0
##  2  2013     1     2       3
##  3  2013     1     3       4
##  4  2013     1     4       3
##  5  2013     1     5       3
##  6  2013     1     6       2
##  7  2013     1     7       2
##  8  2013     1     8       1
##  9  2013     1     9       3
## 10  2013     1    10       3
## # … with 355 more rows
```

```r
# 2
flights %>%
	filter(!is.na(dep_time)) %>%
        group_by(year, month, day) %>% 
        summarise(n_early = mean(dep_time < 500))
```

```
## # A tibble: 365 x 4
## # Groups:   year, month [12]
##     year month   day n_early
##    <int> <int> <int>   <dbl>
##  1  2013     1     1 0      
##  2  2013     1     2 0.00321
##  3  2013     1     3 0.00442
##  4  2013     1     4 0.00330
##  5  2013     1     5 0.00418
##  6  2013     1     6 0.00241
##  7  2013     1     7 0.00215
##  8  2013     1     8 0.00112
##  9  2013     1     9 0.00334
## 10  2013     1    10 0.00323
## # … with 355 more rows
```
…
```
## # A tibble: 0 x 2
## # … with 2 variables: tailnum <chr>, n <int>
```

```r
# 2
flights %>%
	count(year, day, hour, tailnum) %>%
	filter(n > 1)
```

```
## # A tibble: 46,930 x 5
##     year   day  hour tailnum     n
##    <int> <int> <dbl> <chr>   <int>
##  1  2013     1     5 N197UW      2
##  2  2013     1     5 N24211      2
##  3  2013     1     5 N538UW      2
##  4  2013     1     5 N708JB      2
##  5  2013     1     5 N76517      2
##  6  2013     1     6 N10156      2
##  7  2013     1     6 N103US      2
##  8  2013     1     6 N108UW      2
##  9  2013     1     6 N11107      2
## 10  2013     1     6 N11206      2
## # … with 46,920 more rows
```

```r
flights %>%
	count(year, day, hour, flight) %>%
	filter(n > 1)
```

```
## # A tibble: 64,566 x 5
##     year   day  hour flight     n
##    <int> <int> <dbl>  <int> <int>
##  1  2013     1     5    252     2
##  2  2013     1     5    701     5
##  3  2013     1     5    725     5
##  4  2013     1     5    939     5
##  5  2013     1     5   1117     2
##  6  2013     1     5   1141     4
##  7  2013     1     5   1431     2
##  8  2013     1     5   1545     3
##  9  2013     1     5   1714     6
## 10  2013     1     5   1895     2
## # … with 64,556 more rows
```
…
### Mutating joins
When you know primary and foreign key of multiple data, you can join the data. Code 1 below is doing mutating join, ie.e adding new variable to the right end of the data by key variable. 

```r
# 1
flights2 <- flights %>%
	select(year:day, hour, origin, dest, tailnum, carrier)
flights2 %>%
	select(-origin, -dest) %>%
	left_join(airlines, by = "carrier")
```

```
## # A tibble: 336,776 x 7
##     year month   day  hour tailnum carrier name                    
##    <int> <int> <int> <dbl> <chr>   <chr>   <chr>                   
##  1  2013     1     1     5 N14228  UA      United Air Lines Inc.   
##  2  2013     1     1     5 N24211  UA      United Air Lines Inc.   
##  3  2013     1     1     5 N619AA  AA      American Airlines Inc.  
##  4  2013     1     1     5 N804JB  B6      JetBlue Airways         
##  5  2013     1     1     6 N668DN  DL      Delta Air Lines Inc.    
##  6  2013     1     1     5 N39463  UA      United Air Lines Inc.   
##  7  2013     1     1     6 N516JB  B6      JetBlue Airways         
##  8  2013     1     1     6 N829AS  EV      ExpressJet Airlines Inc.
##  9  2013     1     1     6 N593JB  B6      JetBlue Airways         
## 10  2013     1     1     6 N3ALAA  AA      American Airlines Inc.  
## # … with 336,766 more rows
```
…
### Defining the key columns
There are often cases that key columns that you want to join by between two data are in different name. In such cases, join will be easilly done by specifying each variable name as code 1. 

```r
flights2 %>% 
  left_join(airports, c("dest" = "faa"))
```

```
## # A tibble: 336,776 x 15
##     year month   day  hour origin dest  tailnum carrier name    lat   lon
##    <int> <int> <int> <dbl> <chr>  <chr> <chr>   <chr>   <chr> <dbl> <dbl>
##  1  2013     1     1     5 EWR    IAH   N14228  UA      Geor…  30.0 -95.3
##  2  2013     1     1     5 LGA    IAH   N24211  UA      Geor…  30.0 -95.3
##  3  2013     1     1     5 JFK    MIA   N619AA  AA      Miam…  25.8 -80.3
##  4  2013     1     1     5 JFK    BQN   N804JB  B6      <NA>   NA    NA  
##  5  2013     1     1     6 LGA    ATL   N668DN  DL      Hart…  33.6 -84.4
##  6  2013     1     1     5 EWR    ORD   N39463  UA      Chic…  42.0 -87.9
##  7  2013     1     1     6 EWR    FLL   N516JB  B6      Fort…  26.1 -80.2
##  8  2013     1     1     6 LGA    IAD   N829AS  EV      Wash…  38.9 -77.5
##  9  2013     1     1     6 JFK    MCO   N593JB  B6      Orla…  28.4 -81.3
## 10  2013     1     1     6 LGA    ORD   N3ALAA  AA      Chic…  42.0 -87.9
## # … with 336,766 more rows, and 4 more variables: alt <int>, tz <dbl>,
## #   dst <chr>, tzone <chr>
```
…
